/root/workspace/zoyloWebDev/stormweb/src/test/java/com/web/Medicine/ZA_87_Magento_POS_placeOrder_changeStatus.java
/root/workspace/zoyloWebDev/stormweb/src/test/java/com/web/Medicine/ZA_21_PDP_BuyNow_partialPayment_placeOrder_OTC_ONLINE.java
/root/workspace/zoyloWebDev/stormweb/src/test/java/objectRepository/Elements_DocPMS.java
/root/workspace/zoyloWebDev/stormweb/src/test/java/com/web/adminTS/Diagnostic/ZL_16_SlotManagement.java
/root/workspace/zoyloWebDev/stormweb/src/test/java/com/web/recipientDocTS/ZA_124_ASKZOY_LoggedInUser_PreAssessment_self.java
/root/workspace/zoyloWebDev/stormweb/src/test/java/testBase/OnlineConsultPage.java
/root/workspace/zoyloWebDev/stormweb/src/test/java/com/web/recipientTS/Diagnostic/DIAG_205_Book_package_loginRedirection_cod.java
/root/workspace/zoyloWebDev/stormweb/src/test/java/com/web/recipientDocTS/Doctor_BookAppointment_ChangeSession.java
/root/workspace/zoyloWebDev/stormweb/src/test/java/com/web/Medicine/ZA_95_PLP_cart_10K_paymentMode.java
/root/workspace/zoyloWebDev/stormweb/src/test/java/testBase/AdminPage.java
/root/workspace/zoyloWebDev/stormweb/src/test/java/com/web/recipientDocTS/ZA_69_OC_Chat_Prescription.java
/root/workspace/zoyloWebDev/stormweb/src/test/java/com/web/recipientDocTS/Clinic_Package_PriceRange.java
/root/workspace/zoyloWebDev/stormweb/src/test/java/com/web/recipientDocTS/Wellness_Package_Others.java
/root/workspace/zoyloWebDev/stormweb/src/test/java/com/web/Medicine/ZA_17_PDP_BuyNow_cancelTrn_failurePage_RX_ONLINE.java
/root/workspace/zoyloWebDev/stormweb/src/test/java/com/web/recipientDocTS/ZA_130_New_OC_LoggedInUser_SkippedToDoctor_PromoCode_FiftyPercentage.java
/root/workspace/zoyloWebDev/stormweb/src/test/java/com/web/adminTS/Diagnostic/ZA_102_Appointment_filters.java
/root/workspace/zoyloWebDev/stormweb/src/test/java/com/web/recipientDocTS/Clinic_Doctor_BookAppointment.java
/root/workspace/zoyloWebDev/stormweb/src/test/java/com/web/recipientDocTS/Doctor_BookAppointment_ChangeOtherClinic.java
/root/workspace/zoyloWebDev/stormweb/src/test/java/com/web/recipientDocTS/ZA_115_NEW_OC_LoggedInUser_SkipTODoctorConsultation.java
/root/workspace/zoyloWebDev/stormweb/src/test/java/com/web/recipientDocTS/Doctors_BookAppointment_Others_NewPhone.java
/root/workspace/zoyloWebDev/stormweb/src/test/java/objectRepository/Elements_Recipients.java
/root/workspace/zoyloWebDev/stormweb/src/test/java/com/web/Medicine/removedCases/ZA_36_MyOrders_ReOrder_COD.java
/root/workspace/zoyloWebDev/stormweb/src/test/java/testBase/TestUtils.java
/root/workspace/zoyloWebDev/stormweb/src/test/java/com/web/adminTS/Diagnostic/ZA_97_Affiliates_completeBooking.java
/root/workspace/zoyloWebDev/stormweb/src/test/java/com/web/recipientDocTS/Doctor_BookAppointment_Footer.java
/root/workspace/zoyloWebDev/stormweb/src/test/java/com/web/adminTS/Diagnostic/ZA_111_Affiliates_LocationBasedPricing.java
/root/workspace/zoyloWebDev/stormweb/src/test/java/com/web/recipientDocTS/Doctor_BookAppointment_HomeSearch.java
/root/workspace/zoyloWebDev/stormweb/src/test/java/com/web/recipientTS/Diagnostic/DIAG_209_Book_Package_paymentGatewayOptions.java
/root/workspace/zoyloWebDev/stormweb/src/test/java/com/web/Medicine/ZA_5_shopByBrands_placeOrder_COD.java
/root/workspace/zoyloWebDev/stormweb/src/test/java/com/web/adminTS/Diagnostic/ZA_65_Appointment_1plus1_validations_booking.java
/root/workspace/zoyloWebDev/stormweb/src/test/java/com/web/adminTS/Doctor/ST_2695_Verify_clinic_registration.java
/root/workspace/zoyloWebDev/stormweb/src/test/java/com/web/recipientDocTS/ZA_121_New_OC_NonVerifiedUser_SkipToDoctorConsultation.java
/root/workspace/zoyloWebDev/stormweb/src/test/java/com/web/recipientDocTS/ZA_67_OC_BookAppointment_Wallet_PartialTransaction.java
/root/workspace/zoyloWebDev/stormweb/src/test/java/com/web/recipientDocTS/Wellness_Package_PriceRange.java
/root/workspace/zoyloWebDev/stormweb/src/test/java/com/web/Medicine/ZA_25_PDP_BuyNow_signup_AddAddress_placeOrder_RX_COD.java
/root/workspace/zoyloWebDev/stormweb/src/test/java/com/web/recipientDocTS/ZA_126_ASKZOY_GuestUser_ExistingNumber_Preassessment_others.java
/root/workspace/zoyloWebDev/stormweb/src/test/java/com/web/recipientDocTS/ZA_64_OC_ListPage_Chat.java
/root/workspace/zoyloWebDev/stormweb/src/test/java/com/web/recipientDocTS/HomeHealthCare.java
/root/workspace/zoyloWebDev/stormweb/src/test/java/listners/TestListener.java
/root/workspace/zoyloWebDev/stormweb/src/test/java/testBase/DoctorPMSPage.java
/root/workspace/zoyloWebDev/stormweb/src/test/java/com/web/Medicine/ZA_26_ecomHomePage_uploadPrescription_MagentoCheck.java
/root/workspace/zoyloWebDev/stormweb/src/test/java/com/web/recipientDocTS/Recipient_ForgotPassword.java
/root/workspace/zoyloWebDev/stormweb/src/test/java/com/web/recipientDocTS/Doctor_BookAppointment_Self.java
/root/workspace/zoyloWebDev/stormweb/src/test/java/com/web/Medicine/ZA_14_PDP_BuyNow_placeOrder_MyOrdersView_cancelOrder_RX_COD.java
/root/workspace/zoyloWebDev/stormweb/src/test/java/com/web/Medicine/ZA_34_multipleProductLevel_ApplyCoupon_COD.java
/root/workspace/zoyloWebDev/stormweb/src/test/java/com/web/recipientDocTS/ZA_123_ASkZOY_GuestUser_ExistingNumber_PreAssessment_Self.java
/root/workspace/zoyloWebDev/stormweb/src/test/java/com/web/adminTS/Doctor/ST_2837_AddDoctor_NON_PII.java
/root/workspace/zoyloWebDev/stormweb/src/test/java/com/web/recipientDocTS/ZA_119_New_OC_GuestUser_ExistingNumber_SkipToDoctorConsultation.java
/root/workspace/zoyloWebDev/stormweb/src/test/java/com/web/Medicine/ZA_83_OTC_addToCart_uploadPrescription_overrideCart.java
/root/workspace/zoyloWebDev/stormweb/src/test/java/com/web/recipientDocTS/ZA_101_ASKZOY_GuestUser_NewNumber_PreAssessment_Self.java
/root/workspace/zoyloWebDev/stormweb/src/test/java/com/web/Medicine/ZA_1_PDP_BuyNow_shippingPage_applyCoupon_OTC_ONLINE.java
/root/workspace/zoyloWebDev/stormweb/src/test/java/com/web/adminTS/Diagnostic/DIAG_97_partnerManagement_addPartnerBranch.java
/root/workspace/zoyloWebDev/stormweb/src/test/java/com/web/recipientDocTS/Wellness_Package_FixedPrice_Promocode_hundredPercentage.java
/root/workspace/zoyloWebDev/stormweb/src/test/java/com/web/recipientDocTS/Clinic_FixedPrice_Promocode_HundredPercentage.java
/root/workspace/zoyloWebDev/stormweb/src/test/java/com/web/Medicine/ZA_117_uploadPrescription_newAddress_validation.java
/root/workspace/zoyloWebDev/stormweb/src/test/java/com/web/recipientDocTS/ZA_118_New_OC_GuestUser_NewNumber_SkipToDoctorConsultation.java
/root/workspace/zoyloWebDev/stormweb/src/test/java/com/web/recipientDocTS/Doctor_BookAppointment_ProfilePage.java
/root/workspace/zoyloWebDev/stormweb/src/test/java/com/web/Medicine/ZA_16_medicine_PLP_cart_placeOrder_RX_COD.java
/root/workspace/zoyloWebDev/stormweb/src/test/java/com/web/recipientDocTS/Doctor_BookAppointment_ListPage.java
/root/workspace/zoyloWebDev/stormweb/src/test/java/com/web/Medicine/ZA_22_PDP_BuyNow_wallet_placeOrder_OTC_ONLINE.java
/root/workspace/zoyloWebDev/stormweb/src/test/java/com/web/recipientDocTS/HomePage_HomeHealthCare_appointment.java
/root/workspace/zoyloWebDev/stormweb/src/test/java/objectRepository/Elements_Admin.java
/root/workspace/zoyloWebDev/stormweb/src/test/java/com/web/recipientDocTS/OC_Admin_Reports_Chat.java
/root/workspace/zoyloWebDev/stormweb/src/test/java/com/web/adminTS/Doctor/ST_2842_LiningQueue_FeeValidation_Doctor.java
/root/workspace/zoyloWebDev/stormweb/src/test/java/com/web/responsive/Docts/Doctor_Resposive_Listpage_Others.java
/root/workspace/zoyloWebDev/stormweb/src/test/java/com/web/recipientDocTS/Doctor_BookAppointment_Promocode_FiftyPercentage.java
/root/workspace/zoyloWebDev/stormweb/src/test/java/com/web/adminTS/Diagnostic/ZL_25_labManagement_masterProfile.java
/root/workspace/zoyloWebDev/stormweb/src/test/java/com/web/recipientDocTS/ZA_71_OC_Promocode_FiftyPercentage.java
/root/workspace/zoyloWebDev/stormweb/src/test/java/com/web/adminTS/Diagnostic/DIAG_169_Appointment_cancel.java
/root/workspace/zoyloWebDev/stormweb/src/test/java/com/web/recipientDocTS/ZA_76_OC_BookAppointment_Wallet.java
/root/workspace/zoyloWebDev/stormweb/src/test/java/com/web/recipientDocTS/ZOYL_578_Verify_PaymentGateways.java
/root/workspace/zoyloWebDev/stormweb/src/test/java/com/web/recipientDocTS/Wellness_Package_ZFC_Percentage.java
/root/workspace/zoyloWebDev/stormweb/src/test/java/com/web/recipientTS/Diagnostic/DIAG_202_LocationPriceBooking_self_online.java
/root/workspace/zoyloWebDev/stormweb/src/test/java/com/web/Medicine/removedCases/ZA_4_MyOrders_cancelVerify_orderConfirmed_COD.java
/root/workspace/zoyloWebDev/stormweb/src/test/java/com/web/Medicine/ZA_32_PDP_miniCart_placeOrder_RX_COD.java
/root/workspace/zoyloWebDev/stormweb/src/test/java/com/web/recipientDocTS/ZA_129_New_OC_LoggedInUser_SkipToDoctor_Promocode_HundredPercentage.java
/root/workspace/zoyloWebDev/stormweb/src/test/java/com/web/Medicine/ZA_113_DealOfDay.java
/root/workspace/zoyloWebDev/stormweb/src/test/java/com/web/Medicine/ZA_40_check_brokenLinks.java
/root/workspace/zoyloWebDev/stormweb/src/test/java/com/web/recipientDocTS/Doctor_BookAppointment_HomeSearch_ListPage.java
/root/workspace/zoyloWebDev/stormweb/src/test/java/com/web/recipientDocTS/Clinic_FixedPricePackage_Promocode_FiftyPercentage.java
/root/workspace/zoyloWebDev/stormweb/src/test/java/com/web/Medicine/ZA_19_PDP_BuyNow_cartPage_applyCoupon_RX_COD.java
/root/workspace/zoyloWebDev/stormweb/src/test/java/com/web/Medicine/ZA_3_cartItems_merge.java
/root/workspace/zoyloWebDev/stormweb/src/test/java/com/web/recipientDocTS/Doctor_BooKAppointment_Reschedule.java
/root/workspace/zoyloWebDev/stormweb/src/test/java/com/web/recipientDocTS/ZA_107_New_OC_LoggedInUser_PreConsultationAssessment_Others.java
/root/workspace/zoyloWebDev/stormweb/src/test/java/testBase/LoadProp.java
/root/workspace/zoyloWebDev/stormweb/src/test/java/com/web/adminTS/Diagnostic/ZA_66_Appointment_2Plus1_validations_booking.java
/root/workspace/zoyloWebDev/stormweb/src/test/java/com/web/adminTS/Doctor/ST_3640_Admin_ADDWellnessCenter.java
/root/workspace/zoyloWebDev/stormweb/src/test/java/com/web/adminTS/Diagnostic/ZL_29_partnerMapping_Test.java
/root/workspace/zoyloWebDev/stormweb/src/test/java/com/web/adminTS/Doctor/ST_4083_appointmentLogs_addDoctorAppointment.java
/root/workspace/zoyloWebDev/stormweb/src/test/java/com/web/responsive/Docts/Doctor_Responsive_BookAppointment_WithoutLogin.java
/root/workspace/zoyloWebDev/stormweb/src/test/java/com/web/adminTS/Diagnostic/ZL_20_labManagement_masterTest.java
/root/workspace/zoyloWebDev/stormweb/src/test/java/com/web/responsive/Docts/Doctor_Responsive_Listpage_FiftyPercentagePromocode.java
/root/workspace/zoyloWebDev/stormweb/src/test/java/com/web/recipientDocTS/ZA_72_OC_PMS_AddAppointment.java
/root/workspace/zoyloWebDev/stormweb/src/test/java/com/web/recipientDocTS/Doctor_BookAppointment_Check_AgreeTerms_Validation.java
/root/workspace/zoyloWebDev/stormweb/src/test/java/com/web/responsive/Docts/Doctor_Responsive_ListPage.java
/root/workspace/zoyloWebDev/stormweb/src/test/java/com/web/responsive/Medicine/HURR_410_PDP_BuyNow_signup_AddAddress_placeOrder_RX.java
/root/workspace/zoyloWebDev/stormweb/src/test/java/listners/Testone.java
/root/workspace/zoyloWebDev/stormweb/src/test/java/com/web/Medicine/ZA_38_PDP_BuyNow_uploadPrescription_placeOrder_RX_COD.java
/root/workspace/zoyloWebDev/stormweb/src/test/java/com/web/recipientDocTS/Wellness_Package_FixedPrice_Promocode.java
/root/workspace/zoyloWebDev/stormweb/src/test/java/com/web/recipientDocTS/ZA_106_NEW_OC_LoggedInUser_Pre_Consultation_Assessement_Self.java
/root/workspace/zoyloWebDev/stormweb/src/test/java/com/web/recipientDocTS/Clinic_Package_FixedPrice_Percentage.java
/root/workspace/zoyloWebDev/stormweb/src/test/java/com/web/adminTS/Doctor/ST_3352_lookUp_QualificationAdd.java
/root/workspace/zoyloWebDev/stormweb/src/test/java/com/web/recipientDocTS/Doctor_SingUp_BookAppointment_Others.java
/root/workspace/zoyloWebDev/stormweb/src/test/java/com/web/recipientDocTS/Wellness_Package_PackageStartingPrice.java
/root/workspace/zoyloWebDev/stormweb/src/test/java/com/web/recipientDocTS/Wellness_Package_ZFCFixedPrice.java
/root/workspace/zoyloWebDev/stormweb/src/test/java/com/web/recipientDocTS/Doctor_BookAppointement_Promocode_HundredPercentage.java
/root/workspace/zoyloWebDev/stormweb/src/test/java/com/web/Medicine/highMed.java
/root/workspace/zoyloWebDev/stormweb/src/test/java/com/web/recipientDocTS/ZA_125_ASKZOY_NOTVerifiedUser_PresAssesssment_Self.java
/root/workspace/zoyloWebDev/stormweb/src/test/java/com/web/recipientDocTS/Wellness_Package_ZFCPercentage_Wallet.java
/root/workspace/zoyloWebDev/stormweb/src/test/java/com/web/adminTS/Doctor/ST_4286_teleCaller_DoctorEnrolment.java
/root/workspace/zoyloWebDev/stormweb/src/test/java/com/web/adminTS/Diagnostic/ZL_52_labManagement_Phlebotomist.java
/root/workspace/zoyloWebDev/stormweb/src/test/java/com/web/recipientDocTS/Doctor_BookAppointment_Others.java
/root/workspace/zoyloWebDev/stormweb/src/test/java/listners/TestListenerone.java
/root/workspace/zoyloWebDev/stormweb/src/test/java/com/web/adminTS/Doctor/ST_2930_PaymentReport_Doctor.java
/root/workspace/zoyloWebDev/stormweb/src/test/java/com/web/adminTS/Diagnostic/ZL_37_partnerMapping_Package.java
/root/workspace/zoyloWebDev/stormweb/src/test/java/com/web/recipientDocTS/ZA_74_OC_Singup_BookAppointment.java
/root/workspace/zoyloWebDev/stormweb/src/test/java/listners/ExtentManager.java
/root/workspace/zoyloWebDev/stormweb/src/test/java/com/web/recipientDocTS/Clinic_Package_StartingPriceZFCFixed.java
/root/workspace/zoyloWebDev/stormweb/src/test/java/com/web/responsive/Docts/Doctor_Responsive_ListPage_Hundred_Promocode.java
/root/workspace/zoyloWebDev/stormweb/src/test/java/com/web/responsive/Medicine/HURR_420_RX_OTC_Filters.java
/root/workspace/zoyloWebDev/stormweb/src/test/java/com/web/recipientDocTS/TestingJava.java
/root/workspace/zoyloWebDev/stormweb/src/test/java/com/web/recipientDocTS/Wellness_Doctor_BookAppointment.java
/root/workspace/zoyloWebDev/stormweb/src/test/java/com/web/adminTS/Diagnostic/ZL_34_partnerMapping_Profile.java
/root/workspace/zoyloWebDev/stormweb/src/test/java/com/web/recipientDocTS/ZA_116_NEW_OC_GuestUser_PreConsultationAssessment_Self.java
/root/workspace/zoyloWebDev/stormweb/src/test/java/com/web/recipientDocTS/ZA_70_OC_ProfilePage.java
/root/workspace/zoyloWebDev/stormweb/src/test/java/com/web/adminTS/Doctor/ST_2855_appointmentLog_reschedule_Doctor.java
/root/workspace/zoyloWebDev/stormweb/src/test/java/com/web/Medicine/ZA_15_RX_OTC_Filters.java
/root/workspace/zoyloWebDev/stormweb/src/test/java/com/web/recipientDocTS/Wellness_BookPackage_Footer.java
/root/workspace/zoyloWebDev/stormweb/src/test/java/com/web/recipientDocTS/ZA_120_New_OC_GuestUser_ExistingNumber_PreConsultationAsement_Self.java
/root/workspace/zoyloWebDev/stormweb/src/test/java/com/web/Medicine/ZA_31_PLP_cart_placeOrder_OTC_COD.java
/root/workspace/zoyloWebDev/stormweb/src/test/java/com/web/Medicine/ZA_96_maxSaleLimit_OTC.java
/root/workspace/zoyloWebDev/stormweb/src/test/java/com/web/recipientDocTS/ZA_73_OC_Promocode_HundredPercentage.java
/root/workspace/zoyloWebDev/stormweb/src/test/java/com/web/adminTS/Doctor/ST_3098_ActiveInactiveCheck_Hospital_Doctor.java
/root/workspace/zoyloWebDev/stormweb/src/test/java/com/web/recipientTS/Diagnostic/DIAG_200_Book_searchPackage_others_cod.java
/root/workspace/zoyloWebDev/stormweb/src/test/java/com/web/adminTS/Diagnostic/ZL_39_Appointment_addAppointment.java
/root/workspace/zoyloWebDev/stormweb/src/test/java/com/web/adminTS/Diagnostic/testingClass.java
/root/workspace/zoyloWebDev/stormweb/src/test/java/com/web/Medicine/ZA_75_shippingAddress_signUp_validations.java
/root/workspace/zoyloWebDev/stormweb/src/test/java/com/web/Medicine/ZA_33_PLP_placeOrder_paymentGatewayOptions_OTC_ONLINE.java
/root/workspace/zoyloWebDev/stormweb/src/test/java/com/web/recipientDocTS/Doctor_BookAppointment_Specialisation.java
/root/workspace/zoyloWebDev/stormweb/src/test/java/com/web/recipientDocTS/Admin_UpdateDoctor_Records.java
/root/workspace/zoyloWebDev/stormweb/src/test/java/com/web/recipientTS/Diagnostic/DIAG_151_Book_PopularPackage_self_online.java
/root/workspace/zoyloWebDev/stormweb/src/test/java/com/web/Medicine/ZA_20_PDP_BuyNow_placeOrder_RX_COD.java
/root/workspace/zoyloWebDev/stormweb/src/test/java/com/web/adminTS/Doctor/ST_2850_mappedClinic_deactivateValidation_Doctor.java
/root/workspace/zoyloWebDev/stormweb/src/test/java/com/web/recipientDocTS/Doctor_BookAppointment_Wallet.java
/root/workspace/zoyloWebDev/stormweb/src/test/java/com/web/recipientDocTS/ZA_122_New_OC_NonVerifiedUser_PreConsultationAssessment_Self.java
/root/workspace/zoyloWebDev/stormweb/src/test/java/com/web/recipientDocTS/Wellness_Package_ListPage.java
/root/workspace/zoyloWebDev/stormweb/src/test/java/com/web/recipientTS/Diagnostic/DIAG_206_Book_package_signUpRedirection_addAddress_cod.java
/root/workspace/zoyloWebDev/stormweb/src/test/java/listners/Retry.java
/root/workspace/zoyloWebDev/stormweb/src/test/java/com/web/Medicine/ZA_81_shippingAddress_existingUser_AddEdit_validations.java
/root/workspace/zoyloWebDev/stormweb/src/test/java/com/web/adminTS/Diagnostic/ZA_105_Appointment_Online_PaymentLink.java
/root/workspace/zoyloWebDev/stormweb/src/test/java/objectRepository/Elements_OnlineConsult.java
/root/workspace/zoyloWebDev/stormweb/src/test/java/com/web/recipientDocTS/ZA_131_ASKZOY_LoggedINUser_PreConsultation_Self_Promocode_HundredPercentage.java
/root/workspace/zoyloWebDev/stormweb/src/test/java/com/web/adminTS/Diagnostic/ZA_110_Affiliates_combinationPackages_onlineBooking.java
/root/workspace/zoyloWebDev/stormweb/src/test/java/com/web/responsive/Medicine/HURR_407_PDP_BuyNow_shippingPage_applyCoupon_OTC.java
/root/workspace/zoyloWebDev/stormweb/src/test/java/com/web/recipientDocTS/Doctor_SingUp_BookAppointment.java
/root/workspace/zoyloWebDev/stormweb/src/test/java/com/web/responsive/Docts/Doctor_Responsive_Singup.java
/root/workspace/zoyloWebDev/stormweb/src/test/java/com/web/adminTS/Diagnostic/DIAG_98_addAppointment_locationBasedPricing.java
/root/workspace/zoyloWebDev/stormweb/src/test/java/com/web/adminTS/Doctor/ST_2698_Verify_Hospital_registration.java
/root/workspace/zoyloWebDev/stormweb/src/test/java/com/web/Medicine/ZA_23_PDP_cart_placeOrder_RX_COD.java
/root/workspace/zoyloWebDev/stormweb/src/test/java/com/web/adminTS/Doctor/ST_2675_AddDoctor_PII.java
/root/workspace/zoyloWebDev/stormweb/src/test/java/com/web/adminTS/Diagnostic/DIAG_96_partnerManagement_addPartner.java
/root/workspace/zoyloWebDev/stormweb/src/test/java/com/web/recipientDocTS/Doctor_BooKAppointment_PromoCode.java
/root/workspace/zoyloWebDev/stormweb/src/test/java/com/web/recipientDocTS/ZA_132_ASKZOY_LoggedInUser_SkipTodoctor_Self_FiftyPercentage.java
/root/workspace/zoyloWebDev/stormweb/src/test/java/com/web/recipientDocTS/ZA_114_OC_PMS_ADDAppointment.java
/root/workspace/zoyloWebDev/stormweb/src/test/java/com/web/adminTS/Doctor/ST_2845_ExistingApt_timeSlotDeactivate_Validation_Doctor.java
/root/workspace/zoyloWebDev/stormweb/src/test/java/com/web/recipientDocTS/Wellness_Package_FixedPrice_Promocode_FityPercentage.java
/root/workspace/zoyloWebDev/stormweb/src/test/java/com/web/Medicine/ZA_39_nonPrescriptionItem_placeOrder_RxOtc_COD.java
/root/workspace/zoyloWebDev/stormweb/src/test/java/com/web/recipientDocTS/Wellness_Doctor_BookAppointment_Others.java
/root/workspace/zoyloWebDev/stormweb/src/test/java/com/web/recipientDocTS/ProfilePage.java
/root/workspace/zoyloWebDev/stormweb/src/test/java/com/web/recipientTS/Diagnostic/ZA_63_Book_package_applyPromo_online.java
/root/workspace/zoyloWebDev/stormweb/src/test/java/testBase/RecipientPage.java
/root/workspace/zoyloWebDev/stormweb/src/test/java/com/web/adminTS/Doctor/ST_3268_AddEdit_Qualification.java
/root/workspace/zoyloWebDev/stormweb/src/test/java/com/web/adminTS/Diagnostic/ZL_50_Appointment_assignPhlebo.java
/root/workspace/zoyloWebDev/stormweb/src/test/java/com/web/recipientDocTS/Doctor_BookAppointment_WithoutLogIn.java
/root/workspace/zoyloWebDev/stormweb/src/test/java/com/web/recipientTS/Diagnostic/ZA_91_Book_package_priceAlertPopUp_COD.java
/root/workspace/zoyloWebDev/stormweb/src/test/java/com/web/Medicine/ZA_88_Magento_POS_ApplyCoupon_reOrder.java
/root/workspace/zoyloWebDev/stormweb/src/test/java/com/web/recipientDocTS/Doctor_BookAppointment_ChangeTimeSlot.java
/root/workspace/zoyloWebDev/stormweb/src/test/java/com/web/adminTS/Diagnostic/ZA_68_Appointment_combinationPackages_validations_booking.java
/root/workspace/zoyloWebDev/stormweb/src/test/java/testBase/MedicinePage.java
/root/workspace/zoyloWebDev/stormweb/src/test/java/com/web/adminTS/Diagnostic/ZL_28_labManagement_masterPackage.java
/root/workspace/zoyloWebDev/stormweb/src/test/java/com/web/adminTS/Doctor/ST_3133_verifyHospitalDataEdit_Changes_Doctor.java
/root/workspace/zoyloWebDev/stormweb/src/test/java/com/web/adminTS/Doctor/ST_2894_appointmentLog_cancel_Doctor.java
/root/workspace/zoyloWebDev/stormweb/src/test/java/com/web/recipientDocTS/ZA_133_New_OC_CheckTheDataInPrescriptionPdf.java
/root/workspace/zoyloWebDev/stormweb/src/test/java/com/web/recipientDocTS/Doctor_BookAppointment_Cancel.java
/root/workspace/zoyloWebDev/stormweb/src/test/java/com/web/recipientDocTS/Wellness_Doctor_BookAppointment_ChangeSlot.java
/root/workspace/zoyloWebDev/stormweb/src/test/java/com/web/Medicine/ZA_108_MyOrders_UpdatePrescription.java
/root/workspace/zoyloWebDev/stormweb/src/test/java/com/web/recipientDocTS/Wellness_Package_ZFCPercentage_Wallet_PartialPayment.java
/root/workspace/zoyloWebDev/stormweb/src/test/java/com/web/responsive/Docts/Doctor_Responsive_ProfilePage.java
/root/workspace/zoyloWebDev/stormweb/src/test/java/objectRepository/Elements_Medicines.java
/root/workspace/zoyloWebDev/stormweb/src/test/java/com/web/recipientDocTS/Clinic_Package_FixedPrice.java
